…
#### 2.Dosyayı içeri aktaralım

Veriyi doğrudan aktarabiliriz ama üst satırlar boş olduğu için R değişkenleri değer olarak algılıyor

``` r
anket_kirli <- read_excel("~/downloads/örnek_veri.xls") #anket_kirli ismine tanımladık

anket_kirli #tanımladığımız veriyi konsolda yazdırdık ve aşağıdaki veri setine ulaştık
```

    ## # A tibble: 104 x 5
    ##    `Mobil Oyun Tercihleri Anketi`           ..2    ..3      ..4    ..5     
    ##    <chr>                                    <chr>  <chr>    <chr>  <chr>   
    ##  1 Bu veri seti veri temizleme pratiği içi… <NA>   <NA>     <NA>   <NA>    
    ##  2 <NA>                                     <NA>   <NA>     <NA>   <NA>    
    ##  3 "*?CinSiyet\""                           Yaş-?/ "\"Sist… SÜRE   "SATIN_…
    ##  4 Erkek                                    35 - … IOS      2 saat Evet    
    ##  5 Erkek                                    25 - … IOS      1 saat Hayır   
    ##  6 Erkek                                    25 - … IOS      4 saat EVET    
    ##  7 Erkek                                    18 - … IOS      2 saat EVET    
    ##  8 ERKEK                                    18 - … Ios      1.5 s… Hayır   
    ##  9 Erkek                                    18 - … iphone   2 saat Hayır   
    ## 10 Erkek                                    18 - … IOS      2 saat Hayır   
    ## # … with 94 more rows

1.  Satırdaki değişken isimlerini değer olarak algıladı. Bu durumu düzeltmek için read\_excel( ) fonksiyonunun “skip” argümanını kullanarak R’a gereksiz satırları atlamasını belirteceğiz.

``` r
anket_skip <- read_excel("~/downloads/örnek_veri.xls", skip = 4) #anket_skip ismine tanımladık

anket_skip #tanımladığımız veriyi konsolda yazdırdık ve aşağıdaki veri setine ulaştık
```

    ## # A tibble: 101 x 5
    ##    `*?CinSiyet"` `Yaş-?/` `"Sistem"` SÜRE     `SATIN_alma"`
    ##    <chr>         <chr>    <chr>      <chr>    <chr>        
    ##  1 Erkek         35 - 50  IOS        2 saat   Evet         
    ##  2 Erkek         25 - 35  IOS        1 saat   Hayır        
    ##  3 Erkek         25 - 35  IOS        4 saat   EVET         
    ##  4 Erkek         18 - 25  IOS        2 saat   EVET         
    ##  5 ERKEK         18 - 25  Ios        1.5 saat Hayır        
    ##  6 Erkek         18 - 25  iphone     2 saat   Hayır        
    ##  7 Erkek         18 - 25  IOS        2 saat   Hayır        
    ##  8 K             18 - 25  IOS        1 saat   Evet         
    ##  9 K             18 - 25  ıOS        1 saat   Hayır        
    ## 10 KADIN         18 - 25  IOS        3 saat   Hayır        
    ## # … with 91 more rows

Değişken isimleri acayip dağınık bir şekilde işlenmiş. Bunun üstesinden gelmek için veriyi R yazılımına aktarırken “col\_names” argümanını kullanarak kendi değişken isimlerini değiştire biliriz. Ayrıca değerlerden önce yer alan boşlukları da *trim\_ws* yani trim whitespace argümanıyla ortadan kaldırabiliriz Nasıl?

``` r
anket <- read_excel("~/downloads/örnek_veri.xls", skip = 5, col_names =c("cinsiyet","yaş_grubu","sistem","süre","satın_alma"), trim_ws = TRUE)

anket
```

    ## # A tibble: 101 x 5
    ##    cinsiyet yaş_grubu sistem süre     satın_alma
    ##    <chr>    <chr>     <chr>  <chr>    <chr>     
    ##  1 Erkek    35 - 50   IOS    2 saat   Evet      
    ##  2 Erkek    25 - 35   IOS    1 saat   Hayır     
    ##  3 Erkek    25 - 35   IOS    4 saat   EVET      
    ##  4 Erkek    18 - 25   IOS    2 saat   EVET      
    ##  5 ERKEK    18 - 25   Ios    1.5 saat Hayır     
    ##  6 Erkek    18 - 25   iphone 2 saat   Hayır     
    ##  7 Erkek    18 - 25   IOS    2 saat   Hayır     
    ##  8 K        18 - 25   IOS    1 saat   Evet      
    ##  9 K        18 - 25   ıOS    1 saat   Hayır     
    ## 10 KADIN    18 - 25   IOS    3 saat   Hayır     
    ## # … with 91 more rows

Fakat her veri 5 değişkenden (sütundan) ibaret değil. 50 değişkenden oluşan bir veri setiyle çalıştığımızı düşündüğümüzde 50 ayrı değişken ismini manuel olarak değiştirmek kabus gibi bir şey olurdu. Janitor paketini işte tam da bu yüzden bu pratiğe dahil ettik. Paketin clean\_names() fonksiyonu bizi gereksiz ifadelerden kurtaracak, ayrıca Türkçe karakterler var ise onları İngilizce olarak değiştirecek

``` r
anket_janitor <- read_excel("~/downloads/örnek_veri.xls", skip = 4)
anket_janitor <- clean_names(anket_janitor)
anket_janitor
```

    ## # A tibble: 101 x 5
    ##    cin_siyet yas     sistem sure     satin_alma
    ##    <chr>     <chr>   <chr>  <chr>    <chr>     
    ##  1 Erkek     35 - 50 IOS    2 saat   Evet      
    ##  2 Erkek     25 - 35 IOS    1 saat   Hayır     
    ##  3 Erkek     25 - 35 IOS    4 saat   EVET      
    ##  4 Erkek     18 - 25 IOS    2 saat   EVET      
    ##  5 ERKEK     18 - 25 Ios    1.5 saat Hayır     
    ##  6 Erkek     18 - 25 iphone 2 saat   Hayır     
    ##  7 Erkek     18 - 25 IOS    2 saat   Hayır     
    ##  8 K         18 - 25 IOS    1 saat   Evet      
    ##  9 K         18 - 25 ıOS    1 saat   Hayır     
    ## 10 KADIN     18 - 25 IOS    3 saat   Hayır     
    ## # … with 91 more rows
…
Bu noktada ilk olarak yaş verisini *parse\_number* komutu ile metin verisinden sayı verisine dönüştüreceğiz. Sonrasında **anket** veri setindeki ifadeleri küçük harfli haline getireceğiz. Böylelikle kısaltmalar dışında temizleme işlemlerini tamamlamış olacağız. Bunu **stringr** paketinin **str\_to\_lower** komutu ve dplyr paketinin **mutate** fiiliyle gerçekleştireceğiz. Bu dpyr ve mutate nedir? diye merak edenleri daha önce newslabturkey'de yayınlanmış olan **veri manipülasyonu** yazımı öneriyorum.

``` r
anket %>% mutate(süre = parse_number(süre),#metin verisinden sayıs verisine
                  cinsiyet = str_to_lower(cinsiyet),#değerleri küçük harflere dönüştürme
                  sistem = str_to_lower(sistem), 
                  satın_alma = str_to_lower(satın_alma))
```

    ## # A tibble: 101 x 5
    ##    cinsiyet yaş_grubu sistem  süre satın_alma
    ##    <chr>    <chr>     <chr>  <dbl> <chr>     
    ##  1 erkek    35 - 50   ios      2   evet      
    ##  2 erkek    25 - 35   ios      1   hayır     
    ##  3 erkek    25 - 35   ios      4   evet      
    ##  4 erkek    18 - 25   ios      2   evet      
    ##  5 erkek    18 - 25   ios      1.5 hayır     
    ##  6 erkek    18 - 25   iphone   2   hayır     
    ##  7 erkek    18 - 25   ios      2   hayır     
    ##  8 k        18 - 25   ios      1   evet      
    ##  9 k        18 - 25   ıos      1   hayır     
    ## 10 kadin    18 - 25   ios      3   hayır     
    ## # … with 91 more rows

``` r
anket_küçük <- anket %>% mutate(süre = parse_number(süre),
                  cinsiyet = str_to_lower(cinsiyet), 
                  sistem = str_to_lower(sistem), 
                  satın_alma = str_to_lower(satın_alma))
anket_küçük
```

    ## # A tibble: 101 x 5
    ##    cinsiyet yaş_grubu sistem  süre satın_alma
    ##    <chr>    <chr>     <chr>  <dbl> <chr>     
    ##  1 erkek    35 - 50   ios      2   evet      
    ##  2 erkek    25 - 35   ios      1   hayır     
    ##  3 erkek    25 - 35   ios      4   evet      
    ##  4 erkek    18 - 25   ios      2   evet      
    ##  5 erkek    18 - 25   ios      1.5 hayır     
    ##  6 erkek    18 - 25   iphone   2   hayır     
    ##  7 erkek    18 - 25   ios      2   hayır     
    ##  8 k        18 - 25   ios      1   evet      
    ##  9 k        18 - 25   ıos      1   hayır     
    ## 10 kadin    18 - 25   ios      3   hayır     
    ## # … with 91 more rows
…
Kodlama işlemini **mutate** ve **recode** fiileriyle gerçekleştireceğiz. Öncelikle en son tanımladığımız **anket\_küçük** veri setini zincir operatörü ile **mutate** fiiline bağlıyoruz. Sonrasında yeniden kodlayacağımız değişken (**cinisyet**) ismini **recode( )** komutuna eşitliyoruz. Bundan sonraki adım çok önemli! **recode** komutu içerisine önce temizlenecek değişkenin ismi (*cinsiyet*), sonra tırnak içinde yeniden kodlanacak değeri(**e** ve **k**) istenilen ifadeye (**erkek** veya **kadın**) yine tırnak içinde tanımlıyoruz. Bu kadar!

Basitçe açıklamak gerekirse R'a istediğimiz ifadeleri bulmasını ve yeniden kodlamasını(**recode**) etmesini belirtiyoruz.

``` r
anket_küçük %>% 
  mutate(cinsiyet = recode(cinsiyet, "e" = "erkek","k"="kadın"))
```

    ## # A tibble: 101 x 5
    ##    cinsiyet yaş_grubu sistem  süre satın_alma
    ##    <chr>    <chr>     <chr>  <dbl> <chr>     
    ##  1 erkek    35 - 50   ios      2   evet      
    ##  2 erkek    25 - 35   ios      1   hayır     
    ##  3 erkek    25 - 35   ios      4   evet      
    ##  4 erkek    18 - 25   ios      2   evet      
    ##  5 erkek    18 - 25   ios      1.5 hayır     
    ##  6 erkek    18 - 25   iphone   2   hayır     
    ##  7 erkek    18 - 25   ios      2   hayır     
    ##  8 kadın    18 - 25   ios      1   evet      
    ##  9 kadın    18 - 25   ıos      1   hayır     
    ## 10 kadin    18 - 25   ios      3   hayır     
    ## # … with 91 more rows
…
``` r
derli_anket <-anket_küçük %>% 
  mutate(cinsiyet = recode(cinsiyet, "e" = "erkek","k"="kadın"))
```

``` r
derli_anket %>% 
  mutate(sistem = 
           recode(sistem, "iphone"="ios", "apple" = "ios",
                  "apple ios"="ios","ıos" ="ios",
                  "huawei"="android","sony"="android"))
```

    ## # A tibble: 101 x 5
    ##    cinsiyet yaş_grubu sistem  süre satın_alma
    ##    <chr>    <chr>     <chr>  <dbl> <chr>     
    ##  1 erkek    35 - 50   ios      2   evet      
    ##  2 erkek    25 - 35   ios      1   hayır     
    ##  3 erkek    25 - 35   ios      4   evet      
    ##  4 erkek    18 - 25   ios      2   evet      
    ##  5 erkek    18 - 25   ios      1.5 hayır     
    ##  6 erkek    18 - 25   ios      2   hayır     
    ##  7 erkek    18 - 25   ios      2   hayır     
    ##  8 kadın    18 - 25   ios      1   evet      
    ##  9 kadın    18 - 25   ios      1   hayır     
    ## 10 kadin    18 - 25   ios      3   hayır     
    ## # … with 91 more rows
Son olarak yaptığımız işlemi **derli\_anket** verisine tanımlayarak anket verimizi temizleme işlemini tamamlamış oluyoruz.

``` r
derli_anket <- derli_anket %>% 
  mutate(sistem = 
           recode(sistem, "iphone"="ios", "apple" = "ios",
                  "apple ios"="ios","ıos" ="ios",
                  "huawei"="android","sony"="android"))

#iki ayrı mutate() komutunu %>% zincir operatörü ile birbirne bağlayarak da aynı işlemi yapabilirdik.

derli_anket
```

    ## # A tibble: 101 x 5
    ##    cinsiyet yaş_grubu sistem  süre satın_alma
    ##    <chr>    <chr>     <chr>  <dbl> <chr>     
    ##  1 erkek    35 - 50   ios      2   evet      
    ##  2 erkek    25 - 35   ios      1   hayır     
    ##  3 erkek    25 - 35   ios      4   evet      
    ##  4 erkek    18 - 25   ios      2   evet      
    ##  5 erkek    18 - 25   ios      1.5 hayır     
    ##  6 erkek    18 - 25   ios      2   hayır     
    ##  7 erkek    18 - 25   ios      2   hayır     
    ##  8 kadın    18 - 25   ios      1   evet      
    ##  9 kadın    18 - 25   ios      1   hayır     
    ## 10 kadin    18 - 25   ios      3   hayır     
    ## # … with 91 more rows
…
